<?xml version="1.0" encoding="utf-8"?>
<!-- Generator: Adobe Illustrator 21.1.0, SVG Export Plug-In . SVG Version: 6.00 Build 0)  -->
<svg version="1.1" id="Capa_1" xmlns="http://www.w3.org/2000/svg" xmlns:xlink="http://www.w3.org/1999/xlink" x="0px" y="0px"
	 viewBox="0 0 500 339" style="enable-background:new 0 0 500 339;" xml:space="preserve">
<style type="text/css">
	.st0{fill:#1B1217;}
	.st1{fill:#F59D07;}
	.st2{fill:url(#SVGID_1_);}
	.st3{fill:url(#SVGID_2_);}
	.st4{fill:url(#SVGID_3_);}
	.st5{fill:url(#SVGID_4_);}
	.st6{fill:url(#SVGID_5_);}
	.st7{fill:url(#SVGID_6_);}
	.st8{fill:url(#SVGID_7_);}
	.st9{fill:url(#SVGID_8_);}
	.st10{fill:url(#SVGID_9_);}
	.st11{fill:url(#SVGID_10_);}
	.st12{fill:url(#SVGID_11_);}
	.st13{fill:#FFFFFF;}
	.st14{fill:url(#SVGID_12_);}
	.st15{fill:#E0710E;}
	.st16{fill:#FFFFFC;}
</style>
<circle class="st0" cx="249.5" cy="100.3" r="93.7"/>
<circle class="st1" cx="249.5" cy="100.3" r="81"/>
<linearGradient id="SVGID_1_" gradientUnits="userSpaceOnUse" x1="253.8" y1="264.0556" x2="253.8" y2="224.0921" gradientTransform="matrix(1 0 0 -1 0 384)">
	<stop  offset="0" style="stop-color:#F39825"/>
	<stop  offset="9.066814e-02" style="stop-color:#F5A745"/>
	<stop  offset="0.2682" style="stop-color:#F8C17D"/>
	<stop  offset="0.4408" style="stop-color:#FAD7AB"/>
	<stop  offset="0.6042" style="stop-color:#FCE9D0"/>
	<stop  offset="0.7563" style="stop-color:#FEF5EA"/>
	<stop  offset="0.8926" style="stop-color:#FFFCF9"/>
	<stop  offset="1" style="stop-color:#FFFFFF"/>
</linearGradient>
<path class="st2" d="M249.5,181.3c33.3,0,61.9-20.1,74.4-48.9c-2.8-0.2-5.7-0.4-8.5-0.6c-0.5,0-1.1-0.1-1.6-0.1
	c-3,0-5.8,0.5-8.5,1.6c-1.6,0.7-3.1,1.5-4.5,2.4c-2.1-3.1-5.6-5.1-9.6-5.3c-4.7-0.2-9.3-0.4-14-0.5h-0.4c-3,0-5.8,1.1-7.9,3
	c-2.1-2-5-3.3-8.2-3.3c-3.6,0-7.1-0.1-10.7-0.1h-3.4c-3.8,0-7.1,1.7-9.2,4.3c-3.9-2.7-8.4-4.1-13.3-4.1h-0.5h-0.1
	c-5.8,0.2-11.6,0.4-17.3,0.6h-0.3v0.4v-0.4c-3.3,0.2-6.4,1-9.3,2.4c-2.8,1.3-5.2,3.1-7.3,5.3s-3.8,4.8-5,7.7c-0.2,0.5-0.4,1-0.6,1.6
	C198.3,167.9,222.3,181.3,249.5,181.3z"/>
<linearGradient id="SVGID_2_" gradientUnits="userSpaceOnUse" x1="250.15" y1="412.08" x2="250.15" y2="250.2572" gradientTransform="matrix(1 0 0 -1 0 384)">
	<stop  offset="0" style="stop-color:#FFFFFF"/>
	<stop  offset="9.764895e-02" style="stop-color:#F9F9F9"/>
	<stop  offset="0.2217" style="stop-color:#EAEAEA"/>
	<stop  offset="0.36" style="stop-color:#D0D0D0"/>
	<stop  offset="0.5086" style="stop-color:#ABABAB"/>
	<stop  offset="0.6656" style="stop-color:#7D7D7D"/>
	<stop  offset="0.8297" style="stop-color:#444444"/>
	<stop  offset="0.9966" style="stop-color:#010101"/>
	<stop  offset="1" style="stop-color:#000000"/>
</linearGradient>
<path class="st3" d="M327.6,81.7c0-0.2-0.1-0.4-0.1-0.5c-20.9-10-50.4-19-90.2-21c2.1-8.8,8.1-16.4,17.5-22.4
	c8.2-5.2,18.2-8.7,29.6-10.6c-4-1.9-8.1-3.4-12.4-4.7c-7.9,2.2-15,5.2-21.1,9.1c-11.5,7.3-18.7,17-20.9,28.2
	c-4.5-0.1-9.2-0.2-13.9-0.1c2.6-15.8,7.8-28.2,14.1-38c-3.5,0.9-7,2-10.3,3.3c-4.9,9.5-9,21-11.1,34.9c-3.4,0.1-6.7,0.4-9.9,0.7
	c1.5-8.7,1.7-16.7,0.7-23.9c-2.3,1.8-4.5,3.7-6.6,5.8c0.4,8-0.9,15.1-1.7,19.2c-5.1,0.9-10,2-14.6,3.5c-1.4,2.9-2.6,5.9-3.6,8.9
	c5.1-2,10.6-3.6,16.6-4.8c-1.6,5.7-4.1,11.9-6.9,18.9c-3.9,9.7-8.2,20.5-11.3,32.9c1.2,4.5,2.8,8.9,4.7,13
	c2.8-16.8,8.4-31,13.3-43.2c3.4-8.5,6.4-15.9,7.9-22.8c3.3-0.4,6.8-0.7,10.4-0.9c-3.2,27.9-3.9,67.1,9.2,103
	c0.5,1.5,1.1,2.9,1.7,4.4c3.1,1.2,6.2,2.3,9.4,3.1C209.8,137.6,212.4,89.5,215,67c4.9-0.1,9.6-0.1,14.2,0.1
	c-0.2,17.8,10,47.6,34.3,75.8c7,8.1,15.8,16.8,26.6,25c2.2-1.3,4.3-2.8,6.3-4.3c-11.2-8.3-20.3-17.1-27.4-25.4
	c-22.1-25.6-32.7-54-32.6-70.8c42,2.1,72,12,92.4,22.5C328.5,87.1,328.1,84.4,327.6,81.7z"/>
<linearGradient id="SVGID_3_" gradientUnits="userSpaceOnUse" x1="245.5745" y1="288.8082" x2="322.7249" y2="188.1825" gradientTransform="matrix(1 0 0 -1 0 384)">
	<stop  offset="0" style="stop-color:#F39825"/>
	<stop  offset="9.066814e-02" style="stop-color:#F5A745"/>
	<stop  offset="0.2682" style="stop-color:#F8C17D"/>
	<stop  offset="0.4408" style="stop-color:#FAD7AB"/>
	<stop  offset="0.6042" style="stop-color:#FCE9D0"/>
	<stop  offset="0.7563" style="stop-color:#FEF5EA"/>
	<stop  offset="0.8926" style="stop-color:#FFFCF9"/>
	<stop  offset="1" style="stop-color:#FFFFFF"/>
</linearGradient>
<path class="st4" d="M295.3,33.5c8.9,13,14.2,28.8,14.2,45.8c0,44.7-36.3,81-81,81c-17,0-32.8-5.2-45.8-14.2
	c14.6,21.2,39.1,35.2,66.8,35.2c44.7,0,81-36.3,81-81C330.5,72.6,316.5,48.1,295.3,33.5z"/>
<g>
	
		<linearGradient id="SVGID_4_" gradientUnits="userSpaceOnUse" x1="193.65" y1="249" x2="193.65" y2="310.8" gradientTransform="matrix(1 0 0 -1 0 384)">
		<stop  offset="0" style="stop-color:#000000"/>
		<stop  offset="0.1005" style="stop-color:#060301"/>
		<stop  offset="0.2283" style="stop-color:#150D03"/>
		<stop  offset="0.3706" style="stop-color:#2F1E07"/>
		<stop  offset="0.5237" style="stop-color:#54340D"/>
		<stop  offset="0.6853" style="stop-color:#825214"/>
		<stop  offset="0.8515" style="stop-color:#BA751C"/>
		<stop  offset="1" style="stop-color:#F39825"/>
	</linearGradient>
	<path class="st5" d="M204.1,73.2c-0.7,0.1-1.4,0.1-2.1,0.2c-1.7,6.5-4.5,13.3-7.4,20.5c-4.4,11.1-9.4,23.4-12.2,37.9
		c7.2,1.7,14.8,2.7,22.5,3.2C201.7,112.4,202.4,90.6,204.1,73.2z"/>
	
		<linearGradient id="SVGID_5_" gradientUnits="userSpaceOnUse" x1="185.85" y1="323.1" x2="185.85" y2="334.4" gradientTransform="matrix(1 0 0 -1 0 384)">
		<stop  offset="0" style="stop-color:#000000"/>
		<stop  offset="0.1005" style="stop-color:#060301"/>
		<stop  offset="0.2283" style="stop-color:#150D03"/>
		<stop  offset="0.3706" style="stop-color:#2F1E07"/>
		<stop  offset="0.5237" style="stop-color:#54340D"/>
		<stop  offset="0.6853" style="stop-color:#825214"/>
		<stop  offset="0.8515" style="stop-color:#BA751C"/>
		<stop  offset="1" style="stop-color:#F39825"/>
	</linearGradient>
	<path class="st6" d="M189.8,49.6c-3,3.5-5.6,7.3-7.9,11.3c2.3-0.6,4.5-1.1,6.9-1.5C189.2,56.8,189.7,53.4,189.8,49.6z"/>
	
		<linearGradient id="SVGID_6_" gradientUnits="userSpaceOnUse" x1="209.45" y1="326.747" x2="209.45" y2="353.547" gradientTransform="matrix(1 0 0 -1 0 384)">
		<stop  offset="0" style="stop-color:#000000"/>
		<stop  offset="0.1005" style="stop-color:#060301"/>
		<stop  offset="0.2283" style="stop-color:#150D03"/>
		<stop  offset="0.3706" style="stop-color:#2F1E07"/>
		<stop  offset="0.5237" style="stop-color:#54340D"/>
		<stop  offset="0.6853" style="stop-color:#825214"/>
		<stop  offset="0.8515" style="stop-color:#BA751C"/>
		<stop  offset="1" style="stop-color:#F39825"/>
	</linearGradient>
	<path class="st7" d="M204.7,36.1c1,6.5,1.1,13.6,0.2,21.1c0.4,0,0.8-0.1,1.3-0.1c1.7-9.5,4.4-18.5,8-26.7
		C210.9,32.1,207.7,34,204.7,36.1z"/>
	
		<linearGradient id="SVGID_7_" gradientUnits="userSpaceOnUse" x1="177.95" y1="275.5098" x2="177.95" y2="307.4098" gradientTransform="matrix(1 0 0 -1 0 384)">
		<stop  offset="0" style="stop-color:#000000"/>
		<stop  offset="0.1005" style="stop-color:#060301"/>
		<stop  offset="0.2283" style="stop-color:#150D03"/>
		<stop  offset="0.3706" style="stop-color:#2F1E07"/>
		<stop  offset="0.5237" style="stop-color:#54340D"/>
		<stop  offset="0.6853" style="stop-color:#825214"/>
		<stop  offset="0.8515" style="stop-color:#BA751C"/>
		<stop  offset="1" style="stop-color:#F39825"/>
	</linearGradient>
	<path class="st8" d="M179.9,88c1.6-4,3.1-7.8,4.4-11.5c-3.6,1-7,2.2-10.3,3.5c-1.6,6.3-2.4,12.7-2.4,19.1c0,3.1,0.2,6.2,0.6,9.3
		C174.7,100.9,177.5,94,179.9,88z"/>
	
		<linearGradient id="SVGID_8_" gradientUnits="userSpaceOnUse" x1="280.05" y1="312.3436" x2="280.05" y2="351.3336" gradientTransform="matrix(1 0 0 -1 0 384)">
		<stop  offset="0" style="stop-color:#000000"/>
		<stop  offset="0.1005" style="stop-color:#060301"/>
		<stop  offset="0.2283" style="stop-color:#150D03"/>
		<stop  offset="0.3706" style="stop-color:#2F1E07"/>
		<stop  offset="0.5237" style="stop-color:#54340D"/>
		<stop  offset="0.6853" style="stop-color:#825214"/>
		<stop  offset="0.8515" style="stop-color:#BA751C"/>
		<stop  offset="1" style="stop-color:#F39825"/>
	</linearGradient>
	<path class="st9" d="M315.7,62.5C309,50.2,299,39.8,286.6,32.6c-11.2,1.8-20.7,5.2-28.3,10c-6.5,4.1-11.2,9.2-13.9,14.8
		c25.6,1.7,48.9,6.5,69.7,14.1C314.9,68.7,315.4,65.6,315.7,62.5z"/>
	
		<linearGradient id="SVGID_9_" gradientUnits="userSpaceOnUse" x1="275.15" y1="259.3" x2="275.15" y2="310.8" gradientTransform="matrix(1 0 0 -1 0 384)">
		<stop  offset="0" style="stop-color:#000000"/>
		<stop  offset="0.1005" style="stop-color:#060301"/>
		<stop  offset="0.2283" style="stop-color:#150D03"/>
		<stop  offset="0.3706" style="stop-color:#2F1E07"/>
		<stop  offset="0.5237" style="stop-color:#54340D"/>
		<stop  offset="0.6853" style="stop-color:#825214"/>
		<stop  offset="0.8515" style="stop-color:#BA751C"/>
		<stop  offset="1" style="stop-color:#F39825"/>
	</linearGradient>
	<path class="st10" d="M308.2,86.3c-19.5-7.2-41.7-11.6-66.1-13.1c1.3,12.9,8.3,32.2,22,51.5C283.8,116,299.4,102.5,308.2,86.3z"/>
	
		<linearGradient id="SVGID_10_" gradientUnits="userSpaceOnUse" x1="233.675" y1="249.0691" x2="233.675" y2="311.4691" gradientTransform="matrix(1 0 0 -1 0 384)">
		<stop  offset="0" style="stop-color:#000000"/>
		<stop  offset="0.1005" style="stop-color:#060301"/>
		<stop  offset="0.2283" style="stop-color:#150D03"/>
		<stop  offset="0.3706" style="stop-color:#2F1E07"/>
		<stop  offset="0.5237" style="stop-color:#54340D"/>
		<stop  offset="0.6853" style="stop-color:#825214"/>
		<stop  offset="0.8515" style="stop-color:#BA751C"/>
		<stop  offset="1" style="stop-color:#F39825"/>
	</linearGradient>
	<path class="st11" d="M226.3,72.6c-1.4,0-2.9,0-4.4,0c-0.6,0-1.2,0-1.8,0c-1.6,15.5-2.6,38.4,1,62.4c9.6-0.6,18.9-2.2,27.6-4.7
		C233.7,107.9,227.2,86.8,226.3,72.6z"/>
	
		<linearGradient id="SVGID_11_" gradientUnits="userSpaceOnUse" x1="241.85" y1="327.2" x2="241.85" y2="361.5417" gradientTransform="matrix(1 0 0 -1 0 384)">
		<stop  offset="0" style="stop-color:#000000"/>
		<stop  offset="0.1005" style="stop-color:#060301"/>
		<stop  offset="0.2283" style="stop-color:#150D03"/>
		<stop  offset="0.3706" style="stop-color:#2F1E07"/>
		<stop  offset="0.5237" style="stop-color:#54340D"/>
		<stop  offset="0.6853" style="stop-color:#825214"/>
		<stop  offset="0.8515" style="stop-color:#BA751C"/>
		<stop  offset="1" style="stop-color:#F39825"/>
	</linearGradient>
	<path class="st12" d="M248.4,22.5c-4,0-8.1,0.3-12.2,1c-6.5,9.5-11.1,20.7-13.7,33.3c1.8,0,3.7,0,5.5,0c3.2-10.9,10.7-20.3,22-27.5
		c3.4-2.2,7.2-4.1,11.2-5.8C256.9,22.8,252.6,22.5,248.4,22.5z"/>
</g>
<path class="st0" d="M173.3,69.6c6.2-2.4,13-4.2,20.2-5.4c1-5.1,2.7-14.6,1.1-25c2-1.8,4.1-3.5,6.3-5.1c1.9,8.6,2,18.2,0.2,29
	c3.2-0.3,6.5-0.6,9.9-0.7c2.6-16.8,7.9-30.2,14.3-40.6c3.4-1,6.9-1.9,10.5-2.5c-7.8,10.5-14.4,24.4-17.4,42.9
	c4.8-0.1,9.4,0,13.9,0.1c2.3-11.2,9.4-20.9,20.9-28.2c7.4-4.7,16.2-8.1,26-10.3c3.9,1.5,7.6,3.3,11.1,5.3
	c-12.9,1.7-24.2,5.4-33.2,11.1c-9.4,6-15.4,13.6-17.5,22.4c39.9,2,69.3,11,90.3,21c0.6,2.9,1,5.8,1.3,8.7
	c-20.4-10.5-50.4-20.5-92.4-22.5c-0.2,16.8,10.5,45.2,32.6,70.8c7.1,8.3,16.2,17.1,27.4,25.4c-2,1.5-4.2,3-6.3,4.3
	c-10.8-8.2-19.6-16.9-26.6-25c-24.3-28.2-34.5-58-34.3-75.8c-4.6-0.1-9.3-0.1-14.2-0.1c-2.6,22.5-5.2,70.6,13.1,110.7
	c-3.2-0.8-6.3-1.7-9.3-2.8c-0.6-1.6-1.3-3.2-1.9-4.8c-13.1-35.8-12.5-75-9.2-103c-3.6,0.2-7,0.5-10.4,0.9c-1.6,7-4.5,14.4-7.9,22.8
	c-5.3,13.1-11.4,28.5-13.9,47c-2.1-3.7-3.9-7.6-5.4-11.6c3.1-14.6,8.2-27.1,12.6-38.1c2.8-7,5.3-13.3,6.9-18.9
	c-7.9,1.5-15.2,3.8-21.7,6.9C171.1,75.6,172.1,72.5,173.3,69.6z"/>
<g>
	<g>
		<path class="st0" d="M162.5,147.2h-0.6h-0.5c-12.4,1.1-24.9,2.5-37.2,4c-2.3,0.3-4.3,1.2-6,2.5c-1.4-0.5-2.9-0.8-4.4-0.8h-1
			L112,153c-4.6,0.7-9.3,1.3-13.8,2c-3.2,0.5-5.9,2.1-7.7,4.5c-1.9-1.3-4.1-2-6.6-2h-1.1l-1,0.2c-4.7,0.8-9.3,1.6-14,2.5
			c-0.8,0.1-1.5,0.4-2.2,0.6c-0.2,0-0.4,0-0.6,0h-1.2l-1.1,0.2c-14.7,2.8-29.5,6-44,9.5c-5.5,1.3-9.3,6.2-9.3,11.9v11
			c0,6.7,5.2,12,11.9,12h1.5c0,0,1.5-0.4,1.6-0.4v67.2c0,6.5,5.3,11.9,11.8,11.9h1.4l1.2-0.3c4.5-1,9-2,13.5-2.9
			c4.3-0.9,7.7-3.9,9.1-7.8c2.2,2.3,5.2,3.6,8.5,3.6h1.2l1.1-0.2c4.5-0.9,9.1-1.7,13.6-2.4c3.1-0.5,5.7-2.2,7.5-4.5
			c1.9,1.3,4.2,2,6.6,2h1l0.9-0.1c4.5-0.7,9-1.4,13.6-2c2-0.3,3.8-1,5.3-2.1c1.5,0.7,3.2,1,4.9,1h0.9l0.7-0.1
			c11.7-1.5,23.5-2.8,35.3-3.9c6.3-0.6,11.1-5.7,11.1-12v-11.6c0-6.7-5.3-11.9-12-11.9H161h-0.5c-3,0.3-6,0.6-8.9,0.9v-11.3
			c3.1-0.3,6.3-0.6,9.4-0.9c6.3-0.6,11.1-5.7,11.1-12v-9.8c0-6.8-5.3-12.1-12-12.1h-0.6H159c-2.4,0.2-4.9,0.5-7.3,0.7v-1
			c4-0.4,8.1-0.8,12.1-1.2c6.2-0.6,10.9-5.8,10.9-12.1v-11C174.4,152.5,169.2,147.2,162.5,147.2z"/>
		<path class="st0" d="M488.8,185.2c-1.1-2.9-2.7-5.5-4.6-7.9c-1.9-2.3-4.1-4.2-6.6-5.9c-2.7-1.8-5.7-3.1-8.8-3.8
			c-10.2-2.3-20.7-4.5-31-6.5l-1.2-0.2h-1.1c-2.9,0-5.6,1-7.7,2.8c-3.7-3.5-8.2-5.8-13.3-6.7c-3.9-0.7-7.8-1.3-11.7-1.9
			c-1.2-0.2-2.4-0.3-3.6-0.3c-2.5,0-4.8,0.4-6.9,1.3c-2.8-2.1-6.2-3.4-10.1-4c-3.9-0.5-7.8-1-11.8-1.5c-1-0.1-2-0.2-3-0.2
			c-5.7,0-10.9,2.1-15.1,6l-0.1,0.1c-0.4-0.5-0.9-1-1.3-1.5c-2-2.2-4.5-4-7.2-5.4c-2.9-1.5-6-2.4-9.1-2.7c-6.4-0.6-13-1-19.4-1.5
			c-0.5,0-1.1-0.1-1.6-0.1c-3,0-5.8,0.5-8.5,1.6c-1.6,0.7-3.1,1.5-4.5,2.4c-2.1-3.1-5.6-5.1-9.6-5.3c-4.7-0.2-9.3-0.4-14-0.5h-0.4
			c-3,0-5.8,1.1-7.9,3c-2.1-2-5-3.3-8.2-3.3c-3.6,0-7.1-0.1-10.7-0.1h-3.4c-3.8,0-7.1,1.7-9.2,4.3c-3.9-2.7-8.4-4.1-13.3-4.1h-0.5
			h-0.1c-5.8,0.2-11.6,0.4-17.3,0.6h-0.3v0.4v-0.4c-3.3,0.2-6.4,1-9.3,2.4c-2.8,1.3-5.2,3.1-7.3,5.3s-3.8,4.8-5,7.7
			c-1.3,3-1.9,6.2-1.9,9.4v68.9c0,3.4,0.7,6.7,2.1,9.7c1.3,2.8,3.1,5.4,5.3,7.4c2.2,2.1,4.8,3.7,7.7,4.8c2.7,1,5.6,1.6,8.5,1.6
			c0.3,0,0.7,0,1.1,0h0.1c5.5-0.2,11.2-0.4,16.9-0.6h0.4c5-0.2,9.6-1.8,13.4-4.7c2.2,2.5,5.5,3.9,8.9,3.9h3.5c3.5,0,6.9,0,10.5,0.1
			c3.1,0,5.9-1.1,8-3c2.1,2,4.9,3.2,8,3.3c4.6,0.1,9.1,0.3,13.7,0.5h0.5c1.8,0,3.4-0.4,4.9-1c1.8,1.2,3.8,2,6.1,2.1
			c4.6,0.2,9.1,0.5,13.7,0.8h0.5h0.4c2.7,0,5.2-0.9,7.2-2.3c1.9,2,4.6,3.2,7.5,3.5c4.6,0.4,9.1,0.8,13.6,1.2l0.7,0.1h0.6
			c1.8,0,3.5-0.4,5-1.1c1.5,0.9,3.2,1.6,5.1,1.8c4.4,0.5,8.8,1,13.2,1.6l0.8,0.1h0.7c2,0,4-0.5,5.7-1.4c1.8,1.8,4.3,3.1,7,3.5
			c3.8,0.5,7.6,1.1,11.3,1.6l1,0.1h0.9c2.1,0,4-0.5,5.8-1.5c1.7,1.7,4,2.9,6.6,3.3c4.4,0.7,8.8,1.5,13.1,2.3l1.2,0.2h1
			c1.2,0,2.3-0.2,3.4-0.5c1.5,1.3,3.4,2.2,5.5,2.6c4.5,0.9,9,1.8,13.5,2.7l1.3,0.3h1.2c6.7,0,11.9-5.3,11.9-12v-23.1
			c0.6,0.1,1.2,0.3,1.7,0.4c1.7,0.4,3.5,0.6,5.2,0.6s3.5-0.2,5.1-0.6c3.3-0.8,6.4-2.3,9-4.5c2.7-2.2,4.7-5.1,6.2-8.5
			c1.3-3.1,2-6.5,2-10.2v-28.4C490.6,191.4,490,188.3,488.8,185.2z M222,200.3c-0.6,0-1.2,0.1-1.8,0.2v-2c0.6,0.1,1.3,0.2,2,0.2h0.4
			c4-0.1,8-0.2,12-0.3v1.7C230.4,200.1,226.2,200.2,222,200.3z"/>
	</g>
</g>
<g>
	<path class="st0" d="M488.8,185.2c-1.1-2.9-2.7-5.5-4.6-7.9c-1.9-2.3-4.1-4.2-6.6-5.9c-2.7-1.8-5.7-3.1-8.8-3.8
		c-10.2-2.3-20.7-4.5-31-6.5l-1.2-0.2h-1.1c-2.9,0-5.6,1-7.7,2.8c-3.7-3.5-8.2-5.8-13.3-6.7c-3.9-0.7-7.8-1.3-11.7-1.9
		c-1.2-0.2-2.4-0.3-3.6-0.3c-2.5,0-4.8,0.4-6.9,1.3c-2.8-2.1-6.2-3.4-10.1-4c-3.9-0.5-7.8-1-11.8-1.5c-1-0.1-2-0.2-3-0.2
		c-5.7,0-10.9,2.1-15.1,6l-0.1,0.1c-0.4-0.5-0.9-1-1.3-1.5c-2-2.2-4.5-4-7.2-5.4c-2.9-1.5-6-2.4-9.1-2.7c-6.4-0.6-13-1-19.4-1.5
		c-0.5,0-1.1-0.1-1.6-0.1c-3,0-5.8,0.5-8.5,1.6c-1.6,0.7-3.1,1.5-4.5,2.4c-2.1-3.1-5.6-5.1-9.6-5.3c-4.7-0.2-9.3-0.4-14-0.5h-0.4
		c-3,0-5.8,1.1-7.9,3c-2.1-2-5-3.3-8.2-3.3c-3.6,0-7.1-0.1-10.7-0.1h-3.4c-3.8,0-7.1,1.7-9.2,4.3c-3.9-2.7-8.4-4.1-13.3-4.1h-0.5
		h-0.1c-5.8,0.2-11.6,0.4-17.3,0.6h-0.3v0.4v-0.4c-3.3,0.2-6.4,1-9.3,2.4c-2.8,1.3-5.2,3.1-7.3,5.3s-3.8,4.8-5,7.7
		c-1.3,3-1.9,6.2-1.9,9.4v68.9c0,2.7,0.4,5.3,1.3,7.7c0.1,0.2,3.2,9.5,3.3,9.6c0.3,0.8,0.6,1.6,0.9,2.4c1.2,2.7,2.9,5.1,5,7
		c2.1,2,4.5,3.5,7.3,4.6c2.5,1,5.3,1.5,8.1,1.5c0.3,0,0.6,0,1,0h0.1c5.2-0.2,10.6-0.4,16-0.6h0.4c4.8-0.2,9.1-1.7,12.7-4.4
		c2.1,2.4,5.2,3.7,8.5,3.7h3.3c3.3,0,6.6,0,10,0.1c2.9,0,5.6-1.1,7.6-2.9c2,1.9,4.6,3.1,7.5,3.1c4.3,0.1,8.7,0.3,13,0.4h0.5
		c1.7,0,3.2-0.3,4.7-1c1.7,1.1,3.6,1.9,5.8,2c4.3,0.2,8.6,0.5,13,0.8h0.5h0.4c2.6,0,5-0.8,6.9-2.2c1.8,1.9,4.3,3.1,7.2,3.3
		c4.3,0.4,8.6,0.8,12.9,1.2l0.7,0.1h0.6c1.7,0,3.3-0.4,4.7-1c1.4,0.9,3.1,1.5,4.9,1.7c4.2,0.5,8.4,0.9,12.6,1.5l0.8,0.1h0.7
		c1.9,0,3.8-0.5,5.4-1.3c1.7,1.7,4,2.9,6.7,3.3c3.6,0.5,7.2,1,10.7,1.6l1,0.1h0.8c1.9,0,3.8-0.5,5.5-1.4c1.6,1.6,3.8,2.7,6.2,3.1
		c4.2,0.7,8.3,1.4,12.4,2.2l1.1,0.2h1c1.1,0,2.2-0.2,3.2-0.5c1.5,1.2,3.2,2.1,5.2,2.5c4.3,0.8,8.5,1.7,12.8,2.6l1.3,0.2h1.1
		c2.8,0,5.4-1,7.4-2.7c0.2-0.1,10-7.9,10.2-8c2.9-2.2,4.7-5.6,4.7-9.6v-12.5c0.2,0,0.3-0.1,0.5-0.1c3.2-0.8,6-2.2,8.5-4.3
		c0.1-0.1,11.9-10.2,12-10.3c2.7-2.2,4.7-5.1,6.2-8.5c1.3-3.1,2-6.5,2-10.2v-28.4C490.6,191.4,490,188.3,488.8,185.2z"/>
	<path class="st0" d="M174.1,156.2c-1.3-5.2-5.9-9-11.6-9h-0.6h-0.5c-12.4,1.1-24.9,2.5-37.2,4c-2.3,0.3-4.3,1.2-6,2.5
		c-1.4-0.5-2.9-0.8-4.4-0.8h-1L112,153c-4.6,0.7-9.3,1.3-13.8,2c-3.2,0.5-5.9,2.1-7.7,4.5c-1.9-1.3-4.1-2-6.6-2h-1.1l-1,0.2
		c-4.7,0.8-9.3,1.6-14,2.5c-0.8,0.1-1.5,0.4-2.2,0.6c-0.2,0-0.4,0-0.6,0h-1.2l-1.1,0.2c-14.7,2.8-29.5,6-44,9.5
		c-5.5,1.3-9.3,6.2-9.3,11.9v11c0,3.5,1.4,6.7,3.8,8.9c0.2,0.2,10.9,11,11.1,11.2v58.8c0,4.1,2.2,7.8,5.4,9.9
		c0.2,0.1,10.7,7.7,10.9,7.8c1.9,1.4,4.2,2.2,6.7,2.2h1.3l1.2-0.3c4.2-0.9,8.5-1.9,12.8-2.8c4.1-0.9,7.3-3.7,8.6-7.4l0,0
		c0.2,0.1,0.3,0.3,0.5,0.4c2,1.9,4.7,3,7.6,3h1.1l1-0.2c4.3-0.8,8.6-1.6,12.9-2.3c2.9-0.5,5.4-2,7.1-4.2c1.8,1.2,3.9,1.9,6.3,1.9
		h0.9l0.8-0.1c4.3-0.7,8.6-1.3,12.9-1.9c1.9-0.3,3.6-1,5.1-2c1.4,0.6,3,1,4.7,1h0.8l0.7-0.1c11.1-1.4,22.3-2.6,33.5-3.7
		c6-0.5,10.5-5.4,10.5-11.4v-11c0-1.6-0.3-3.1-0.9-4.5c-0.1-0.2-3.7-9.9-3.8-10.1c-1.4-3.7-4.5-6.5-8.5-7.4c0.4,0,0.8-0.1,1.2-0.1
		c6-0.5,10.5-5.4,10.5-11.4v-9.2c0-1.3-0.2-2.6-0.6-3.8c-0.1-0.2-3.2-10-3.2-10.2c3.8-1.9,6.3-5.8,6.3-10.3v-10.4
		c0-1.3-0.2-2.4-0.5-3.6C177.8,170,174.1,156.4,174.1,156.2z"/>
</g>
<g>
	<g>
		<path class="st13" d="M64.9,172.5c0.3-0.1,0.4,0.1,0.4,0.5c0,3.7,0,7.3,0,11c0,0.4-0.2,0.6-0.5,0.6c-4.8,0.9-9.5,1.9-14.3,2.9
			c0,27.2,0,54.5,0,81.7c0,0.3-0.2,0.4-0.5,0.5c-4.5,0.9-9.1,1.9-13.6,2.9c-0.3,0.1-0.4,0-0.4-0.3c0-27.2,0-54.5,0-81.7
			c-4.8,1.1-9.7,2.2-14.5,3.4c-0.3,0.1-0.4-0.1-0.4-0.4c0-3.7,0-7.3,0-11c0-0.4,0.1-0.6,0.4-0.6C35.8,178.4,50.3,175.3,64.9,172.5z"
			/>
		<path class="st13" d="M113.6,164.5c0.4,0,0.5,0.1,0.5,0.3c0,30.9,0,61.7,0,92.6c0,0.4-0.2,0.6-0.5,0.6c-4.6,0.6-9.2,1.3-13.7,2
			c-0.3,0-0.4-0.1-0.4-0.5c0-13.6,0-27.2,0-40.7c0-0.4-0.2-0.5-0.5-0.5c-4.8,0.7-9.5,1.5-14.2,2.3c-0.1,0-0.3,0.2-0.5,0.5
			c0,13.6,0,27.2,0,40.9c0,0.4-0.1,0.6-0.4,0.6c-4.6,0.8-9.2,1.6-13.8,2.5c-0.3,0-0.4-0.1-0.4-0.5c0-30.9,0-61.7,0-92.6
			c0-0.3,0.1-0.4,0.4-0.5c4.6-0.9,9.2-1.7,13.8-2.5c0.3,0,0.4,0.1,0.4,0.3c0,12.9,0,25.8,0,38.7c0,0.4,0.2,0.5,0.5,0.4
			c4.7-0.8,9.5-1.6,14.2-2.3c0.4-0.1,0.5-0.3,0.5-0.6c0-12.9,0-25.8,0-38.7c0-0.3,0.1-0.4,0.4-0.5
			C104.5,165.8,109,165.2,113.6,164.5z"/>
		<path class="st13" d="M162.9,170.2c0,0.4-0.1,0.5-0.4,0.6c-7.6,0.7-15.1,1.4-22.6,2.3c0,8.1,0,16.2,0,24.3c6.6-0.8,13.3-1.4,20-2
			c0.4,0,0.5,0.1,0.5,0.5c0,3.3,0,6.5,0,9.8c0,0.3-0.2,0.4-0.5,0.5c-6.7,0.6-13.3,1.3-20,2c0,11.5,0,23.1,0,34.6
			c7.2-0.8,14.4-1.5,21.6-2.2c0.4,0,0.5,0.1,0.5,0.4c0,3.9,0,7.7,0,11.6c0,0.3-0.2,0.4-0.5,0.5c-11.9,1.1-23.9,2.4-35.7,3.9
			c-0.4,0-0.5-0.1-0.5-0.3c0-31,0-62.1,0-93.1c0-0.4,0.2-0.6,0.5-0.6c12.3-1.6,24.5-2.9,36.8-4c0.3,0,0.4,0.1,0.4,0.5
			C162.9,162.9,162.9,166.6,162.9,170.2z"/>
		<path class="st13" d="M223.6,155.2c3.5-0.1,6.5,1.1,8.8,3.5c2.4,2.4,3.5,5.4,3.5,8.8c0,6.3,0,12.6,0,18.8c0,0.3-0.2,0.4-0.5,0.4
			c-4.4,0.1-8.8,0.2-13.2,0.3c-0.3,0-0.4-0.1-0.4-0.4c0-6.3,0-12.6,0-18.8c0-0.4-0.1-0.5-0.4-0.5c-4.1,0.1-8.2,0.3-12.4,0.4
			c-0.3,0-0.4,0.2-0.4,0.6c0,23,0,46,0,69.1c0,0.3,0.1,0.4,0.4,0.4c4.1-0.2,8.2-0.3,12.4-0.4c0.3,0,0.4-0.1,0.4-0.4
			c0-8.1,0-16.3,0-24.4c0-0.4,0.2-0.5,0.5-0.5c4.4-0.1,8.8-0.2,13.2-0.3c0.3,0,0.4,0.2,0.4,0.5c0,8.1,0,16.2,0,24.3
			c0,3.5-1.2,6.5-3.5,8.9c-2.3,2.5-5.3,3.8-8.8,3.9h0.1c-5.8,0.2-11.6,0.4-17.4,0.6h0.1c-1.8,0.1-3.5-0.2-5-0.8
			c-1.5-0.6-2.9-1.4-4-2.5s-2-2.3-2.7-3.8s-1-3.1-1-4.9c0-23,0-45.9,0-68.9c0-1.7,0.3-3.3,1-4.9c0.7-1.6,1.6-3,2.7-4.2
			c1.1-1.2,2.4-2.1,4-2.9c1.5-0.7,3.2-1.2,5-1.2h-0.1c5.8-0.3,11.6-0.5,17.4-0.6C223.7,155.2,223.6,155.2,223.6,155.2z"/>
		<path class="st13" d="M290.7,155.8c0.4,0,0.5,0.2,0.5,0.4c0,30.9,0,61.7,0,92.6c0,0.4-0.2,0.5-0.5,0.5c-4.6-0.2-9.2-0.4-13.8-0.5
			c-0.3,0-0.4-0.2-0.4-0.5c0-13.6,0-27.2,0-40.7c0-0.4-0.2-0.5-0.5-0.5c-4.8-0.1-9.6-0.2-14.4-0.3c-0.1,0-0.3,0.1-0.5,0.4
			c0,13.6,0,27.2,0,40.9c0,0.4-0.1,0.5-0.4,0.5c-4.7-0.1-9.3-0.1-14-0.1c-0.3,0-0.4-0.2-0.4-0.5c0-30.9,0-61.7,0-92.6
			c0-0.3,0.1-0.4,0.4-0.4c4.7,0,9.3,0,14,0.1c0.3,0,0.4,0.1,0.4,0.4c0,12.9,0,25.8,0,38.7c0,0.4,0.2,0.5,0.5,0.5
			c4.8,0.1,9.6,0.1,14.4,0.3c0.4,0,0.5-0.2,0.5-0.5c0-12.9,0-25.8,0-38.7c0-0.3,0.1-0.4,0.4-0.4
			C281.4,155.5,286.1,155.6,290.7,155.8z"/>
		<path class="st13" d="M333.8,158.6c1.6,0.1,3.2,0.6,4.8,1.4c1.6,0.8,2.9,1.8,4.1,3.1c1.2,1.2,2.1,2.6,2.7,4.3c0.7,1.6,1,3.3,1,5
			c0,27,0,54,0,81.1c0,0.3-0.2,0.4-0.5,0.3c-4.6-0.5-9.2-0.9-13.8-1.3c-0.3,0-0.4-0.2-0.4-0.4c0-12.6,0-25.2,0-37.8
			c-5-0.4-9.9-0.8-14.9-1.1c0,12.6,0,25.2,0,37.8c0,0.3-0.2,0.4-0.5,0.4c-4.6-0.3-9.2-0.6-13.8-0.8c-0.3,0-0.4-0.2-0.4-0.4
			c0-27,0-54,0-81.1c0-1.7,0.3-3.3,0.9-4.8s1.5-2.7,2.7-3.8c1.2-1,2.5-1.9,4-2.5s3.2-0.9,5-0.8C321,157.5,327.4,158,333.8,158.6z
			 M331.6,202.2c0-10.4,0-20.8,0-31.3c0-0.3-0.1-0.4-0.4-0.4v-0.1c-4.7-0.4-9.4-0.7-14.1-1.1v0.1c-0.3,0-0.4,0.1-0.4,0.4
			c0,10.4,0,20.8,0,31.3C321.7,201.4,326.7,201.8,331.6,202.2z"/>
		<path class="st13" d="M424.9,263.9c0,0.3-0.2,0.4-0.5,0.3c-4.4-0.8-8.9-1.6-13.3-2.3c-0.4-0.1-0.5-0.2-0.5-0.5
			c0-25.5,0-50.9,0-76.4c0-1.2-0.4-2.3-1.1-3.4c-0.7-1.1-1.9-1.8-3.5-2.1c-0.9-0.1-1.8-0.3-2.7-0.4c-1.6-0.3-3-0.1-4.3,0.3
			c-1.2,0.5-1.9,1.7-1.9,3.5c0,25.6,0,51.1,0,76.7c0,0.3-0.2,0.4-0.5,0.3c-3.8-0.6-7.6-1.1-11.5-1.7c-0.4-0.1-0.5-0.2-0.5-0.5
			c0-25.6,0-51.1,0-76.7c0-1.9-0.6-3.2-1.9-4.1c-1.2-0.8-2.7-1.4-4.3-1.6c-0.9-0.1-1.8-0.2-2.7-0.3c-1.6-0.2-2.8,0.2-3.5,1.1
			c-0.7,0.9-1.1,2-1.1,3.1c0,25.5,0,50.9,0,76.4c0,0.3-0.2,0.4-0.5,0.3c-4.5-0.6-8.9-1.1-13.4-1.6c-0.4,0-0.5-0.2-0.5-0.5
			c0-26.8,0-53.7,0-80.5c0-3.5,1.2-6.3,3.5-8.6c2.4-2.2,5.3-3.1,8.8-2.7c3.9,0.5,7.8,1,11.6,1.5c2,0.3,3.6,0.9,4.8,1.9
			c1.2,1,2.2,2.1,3,3.2c0.8,1.2,1.3,2.3,1.6,3.5c0.3,1.2,0.6,2.1,0.7,2.8c0.2-0.8,0.4-1.7,0.8-2.8s0.9-2.1,1.7-3
			c0.8-0.9,1.8-1.7,3-2.2c1.2-0.6,2.8-0.7,4.7-0.4c3.9,0.6,7.7,1.2,11.6,1.9c3.5,0.6,6.4,2.3,8.7,5.2c2.3,2.9,3.5,6.1,3.5,9.6
			C424.9,210.2,424.9,237.1,424.9,263.9z"/>
		<path class="st13" d="M466.3,179c1.8,0.4,3.4,1.1,5,2.1c1.5,1,2.9,2.2,4,3.6c1.1,1.4,2,2.9,2.7,4.7c0.7,1.7,1,3.4,1,5.1
			c0,9.5,0,19,0,28.4c0,2.1-0.4,4.1-1.1,5.8c-0.7,1.7-1.7,3.1-2.9,4.1c-1.2,1-2.7,1.8-4.3,2.1c-1.6,0.4-3.3,0.4-5.1,0
			c-5.2-1.2-10.4-2.3-15.6-3.4c-0.2,0-0.3,0.1-0.3,0.3c0,12.3,0,24.7,0,37c0,0.4-0.2,0.5-0.5,0.4c-4.5-0.9-9.1-1.9-13.7-2.7
			c-0.3-0.1-0.4-0.3-0.4-0.6c0-31,0-62.1,0-93.1c0-0.3,0.1-0.4,0.4-0.3C445.9,174.5,456.1,176.7,466.3,179z M465.1,191.2
			c0-0.3-0.1-0.4-0.4-0.5c-4.8-1.1-9.7-2.1-14.5-3.1c-0.3-0.1-0.4,0.1-0.4,0.3c0,10.9,0,21.7,0,32.6c0,0.3,0.1,0.4,0.4,0.5
			c2.3,0.5,4.5,0.9,6.7,1.4c0.6,0.1,1.4,0.2,2.3,0.1s1.8-0.4,2.7-0.9c0.9-0.6,1.6-1.5,2.2-2.7s0.9-2.9,0.9-5.1
			C465.1,206.2,465.1,198.7,465.1,191.2z"/>
	</g>
</g>
<path class="st0" d="M405.4,299.8c1.3-8.4,4.6-16.3,9.5-23.3l3.3-4.7l-15.4-2.4c-4.6-0.7-9.5-1.5-14.7-2.2l1-7.3l-9.6-1.3
	c-43-5.7-86.7-8.6-130-8.6s-87.1,2.9-130,8.6l-9.6,1.3l1,7.3c-5.3,0.7-10.1,1.5-14.7,2.2l-15.4,2.4l3.3,4.7
	c4.9,6.9,8.2,14.9,9.5,23.3c0,0.2,0.1,0.4,0.1,0.6c1.2,8,0.6,16.2-1.7,23.9l-1.8,6l15.1-2.5c12-1.9,35-4.4,47.1-5.8l0.9-7.4
	c35.4-4.1,60.5-5.4,96.1-5.4s60.7,1.3,96.1,5.4l0.9,7.4c12.1,1.4,35.1,3.9,47.1,5.8l15.1,2.5l-1.8-6c-2.3-7.8-2.9-15.9-1.7-23.9
	C405.3,300.2,405.4,300,405.4,299.8z"/>
<g>
	<path class="st1" d="M103.9,318.4c12.2-1.9,24.5-3.6,36.8-5.1c-4.9-1.9-9.7-3.7-14.7-5.5c3.2-11.4,6.5-22.7,10-34.1
		c-12.8,1.5-25.6,3.3-38.3,5.3C101.9,285.1,105.9,311.3,103.9,318.4z"/>
	<path class="st1" d="M395.2,318.4c-12.2-1.9-24.5-3.6-36.8-5.1c4.9-1.9,9.7-3.7,14.7-5.5c-3.2-11.4-6.5-22.7-10-34.1
		c12.8,1.5,25.6,3.3,38.3,5.3C397.1,285.1,393.1,311.3,395.2,318.4z"/>
	<path class="st1" d="M373,307.8c-82-10.9-165.1-10.9-247.1,0c-1.7-13.2-3.5-26.3-5.2-39.5c85.5-11.4,172.1-11.4,257.6,0
		C376.5,281.5,374.8,294.6,373,307.8z"/>
</g>
<radialGradient id="SVGID_12_" cx="257.45" cy="120.7592" r="369.2159" gradientTransform="matrix(1 0 0 -0.1863 0 285.7434)" gradientUnits="userSpaceOnUse">
	<stop  offset="0.2504" style="stop-color:#FFFFFF"/>
	<stop  offset="0.3308" style="stop-color:#FFFCF9"/>
	<stop  offset="0.4331" style="stop-color:#FEF5EA"/>
	<stop  offset="0.5471" style="stop-color:#FCE9D0"/>
	<stop  offset="0.6696" style="stop-color:#FAD7AB"/>
	<stop  offset="0.799" style="stop-color:#F8C17D"/>
	<stop  offset="0.932" style="stop-color:#F5A745"/>
	<stop  offset="1" style="stop-color:#F39825"/>
</radialGradient>
<path class="st14" d="M136.8,206v40l3.4-0.4c6.2-0.7,12.5-1.4,18.7-1.9v6.3c-10.2,1-20.6,2.1-30.8,3.3v-46.6
	C131,206.6,133.9,206.3,136.8,206z M47.4,216.8c-2.8,0.4-5.7,0.9-8.5,1.4v50.7c2.8-0.6,5.7-1.2,8.5-1.8V216.8z M196.9,202.2v35.7
	c0,1.4,0.2,2.5,0.7,3.6s1.2,2,2,2.8s1.8,1.4,3,1.9c1,0.4,2.1,0.6,3.3,0.6c0.2,0,0.3,0,0.5,0c5.7-0.3,11.5-0.5,17.2-0.6
	c2.7-0.1,4.9-1,6.6-2.9c1.8-1.9,2.7-4.2,2.7-6.9v-21.8c-2.7,0-5.4,0.1-8.1,0.2v22c0,1.9-1.4,3.4-3.3,3.4c-4.1,0.1-8.2,0.3-12.5,0.4
	c-1.9,0-3.4-1.5-3.4-3.4v-35.4C202.7,202,199.8,202.1,196.9,202.2z M257.9,245.5v-39.6l0.9-0.9c0.4-0.4,1.3-1.3,2.7-1.3l0,0
	c4.8,0.1,9.6,0.1,14.4,0.3c2,0.1,3.5,1.6,3.5,3.6v38.3c2.9,0.1,5.8,0.2,8.7,0.3v-44.4c-13-0.4-26-0.6-39-0.6v44.3h0.9
	C252.7,245.4,255.3,245.5,257.9,245.5z M72.6,261.6c2.9-0.5,5.7-1,8.6-1.5v-40l0.7-0.8c0.4-0.5,1.1-1.3,2.3-1.5
	c4.8-0.8,9.5-1.6,14.3-2.3h0.4h0.2c0.9,0,1.8,0.4,2.4,1s1,1.5,1,2.5v37.7c2.9-0.4,5.7-0.9,8.6-1.3v-46.8c-7.4,0.8-14.7,1.6-22,2.5
	c-1.3,0.2-2.6,0.4-3.9,0.6l-0.4,0.1h-0.3c-0.2,0-0.4,0-0.6-0.1c-3.8,0.5-7.6,1-11.3,1.5C72.6,213.2,72.6,261.6,72.6,261.6z
	 M305,202.4v45.1c2.9,0.2,5.8,0.3,8.7,0.5v-38.2l3.2,0.2c5,0.3,10,0.7,14.9,1.1l2.8,0.2v38.2c2.9,0.3,5.8,0.5,8.7,0.8v-45.9
	c-2.9-0.2-5.8-0.4-8.7-0.6v1.5l-3.3-0.3c-4.9-0.4-9.9-0.8-14.9-1.1l-2.8-0.2v-1.1C310.8,202.6,307.9,202.5,305,202.4z M368.3,206.6
	c-2.8-0.3-5.6-0.5-8.4-0.7v45.9c2.8,0.3,5.6,0.6,8.4,1V206.6z M467.3,219.3c-0.1,0.3-0.2,0.6-0.3,0.8c-0.9,1.7-2,3.1-3.3,3.9
	s-2.7,1.3-4.1,1.4c-0.4,0-0.7,0-1.1,0c-0.8,0-1.5-0.1-2.1-0.2c-2.2-0.5-4.5-1-6.7-1.4c-1.7-0.4-2.8-1.7-2.8-3.4V216
	c-2.8-0.4-5.7-0.8-8.5-1.3V264c2.8,0.6,5.7,1.1,8.5,1.7v-33.8c0-2.2,1.7-3.4,3.2-3.4h0.4l0.3,0.1c5.2,1.1,10.4,2.2,15.6,3.4
	c0.7,0.2,1.3,0.2,2,0.2c0.6,0,1.2-0.1,1.7-0.2c1.1-0.3,2.1-0.8,3-1.5s1.6-1.7,2.1-3c0.6-1.3,0.8-2.9,0.8-4.6v-2.1
	C473.1,220.3,470.2,219.8,467.3,219.3z M394.2,209.2c-2.2-0.2-4.3-0.5-6.5-0.7v47c2.2,0.3,4.3,0.6,6.5,0.9V209.2z M421.9,212.5
	c-2.8-0.4-5.5-0.7-8.3-1.1v47.8c2.8,0.5,5.5,0.9,8.3,1.4V212.5z"/>
<g>
	<g>
		<path class="st15" d="M191.9,290.7c-0.2-0.2-0.2-0.3-0.2-0.5v-18.3c0-0.2,0.1-0.4,0.2-0.5c0.2-0.1,0.3-0.2,0.5-0.2h5.7
			c0.2,0,0.4,0.1,0.5,0.2c0.2,0.2,0.2,0.3,0.2,0.5v13.2h7.8c0.2,0,0.4,0.1,0.5,0.2c0.2,0.2,0.2,0.3,0.2,0.5v4.3
			c0,0.2-0.1,0.4-0.2,0.5c-0.2,0.2-0.3,0.2-0.5,0.2h-14.3C192.2,290.9,192,290.8,191.9,290.7z"/>
		<path class="st15" d="M212.4,290.7c-0.2-0.2-0.2-0.3-0.2-0.5v-18.3c0-0.2,0.1-0.4,0.2-0.5c0.2-0.1,0.3-0.2,0.5-0.2h14.5
			c0.2,0,0.4,0.1,0.5,0.2c0.2,0.2,0.2,0.3,0.2,0.5v4c0,0.2-0.1,0.4-0.2,0.5c-0.2,0.2-0.3,0.2-0.5,0.2h-8.5v1.8h7.9
			c0.2,0,0.4,0.1,0.5,0.2c0.2,0.2,0.2,0.3,0.2,0.5v3.7c0,0.2-0.1,0.4-0.2,0.5c-0.2,0.2-0.3,0.2-0.5,0.2h-7.9v1.8h8.7
			c0.2,0,0.4,0.1,0.5,0.2c0.2,0.2,0.2,0.3,0.2,0.5v4c0,0.2-0.1,0.4-0.2,0.5c-0.2,0.2-0.3,0.2-0.5,0.2h-14.7
			C212.7,290.9,212.5,290.8,212.4,290.7z"/>
		<path class="st15" d="M232.5,290.7c-0.1-0.1-0.2-0.3-0.2-0.4s0-0.1,0-0.2l6.3-18c0.1-0.2,0.2-0.5,0.4-0.7s0.5-0.3,0.8-0.3h6.1
			c0.4,0,0.6,0.1,0.8,0.3c0.2,0.2,0.3,0.4,0.4,0.7l6.3,18c0,0.1,0,0.1,0,0.2c0,0.2-0.1,0.3-0.2,0.4c-0.1,0.1-0.3,0.2-0.4,0.2h-5.2
			c-0.6,0-0.9-0.2-1.1-0.7l-0.7-1.9h-6.1l-0.7,1.9c-0.2,0.5-0.5,0.7-1.1,0.7h-5.2C232.7,290.9,232.6,290.8,232.5,290.7z
			 M241.4,282.8h3.2l-1.6-5.3L241.4,282.8z"/>
		<path class="st15" d="M259.7,289.2c-1.7-1.3-2.5-3.2-2.7-5.8c0-0.5,0-1.3,0-2.5s0-2,0-2.6c0.1-2.5,1-4.3,2.7-5.6
			c1.7-1.3,4-1.9,6.8-1.9c1.9,0,3.6,0.3,5.1,0.8c1.5,0.6,2.6,1.3,3.4,2.3s1.2,2,1.2,3.2c0,0.2-0.1,0.3-0.2,0.4s-0.3,0.2-0.4,0.2
			h-6.2c-0.4,0-0.7-0.1-0.8-0.3c0,0-0.1-0.2-0.3-0.4c-0.2-0.2-0.4-0.4-0.7-0.5c-0.3-0.1-0.7-0.2-1.1-0.2c-1.4,0-2.1,0.7-2.2,2.1
			c0,0.5,0,1.3,0,2.4s0,1.9,0,2.4c0.1,1.6,0.8,2.4,2.3,2.4c0.8,0,1.3-0.2,1.8-0.5c0.4-0.3,0.6-0.8,0.6-1.5l0,0h-1.3
			c-0.2,0-0.4-0.1-0.5-0.2c-0.2-0.1-0.2-0.3-0.2-0.5v-3.1c0-0.2,0.1-0.4,0.2-0.5c0.2-0.1,0.3-0.2,0.5-0.2h7.8c0.2,0,0.4,0.1,0.5,0.2
			c0.2,0.2,0.2,0.3,0.2,0.5v3.7c0,1.7-0.4,3.1-1.2,4.2c-0.8,1.2-2,2.1-3.4,2.6c-1.5,0.6-3.2,0.9-5.1,0.9
			C263.6,291.2,261.4,290.5,259.7,289.2z"/>
		<path class="st15" d="M284,289.2c-1.7-1.3-2.5-3.2-2.5-5.8v-11.6c0-0.2,0.1-0.4,0.2-0.5c0.2-0.1,0.3-0.2,0.5-0.2h5.5
			c0.2,0,0.4,0.1,0.5,0.2c0.2,0.2,0.2,0.3,0.2,0.5v11.5c0,0.7,0.2,1.3,0.5,1.6c0.3,0.4,0.9,0.6,1.6,0.6s1.2-0.2,1.6-0.6
			c0.3-0.4,0.5-0.9,0.5-1.6v-11.5c0-0.2,0.1-0.4,0.2-0.5c0.2-0.1,0.3-0.2,0.5-0.2h5.5c0.2,0,0.4,0.1,0.5,0.2
			c0.2,0.2,0.2,0.3,0.2,0.5v11.6c0,2.6-0.8,4.5-2.5,5.8c-1.6,1.3-3.9,1.9-6.7,1.9C287.9,291.2,285.6,290.5,284,289.2z"/>
		<path class="st15" d="M305.8,290.7c-0.2-0.2-0.2-0.3-0.2-0.5v-18.3c0-0.2,0.1-0.4,0.2-0.5c0.2-0.1,0.3-0.2,0.5-0.2h14.5
			c0.2,0,0.4,0.1,0.5,0.2c0.2,0.2,0.2,0.3,0.2,0.5v4c0,0.2-0.1,0.4-0.2,0.5c-0.2,0.2-0.3,0.2-0.5,0.2h-8.5v1.8h7.9
			c0.2,0,0.4,0.1,0.5,0.2c0.2,0.2,0.2,0.3,0.2,0.5v3.7c0,0.2-0.1,0.4-0.2,0.5c-0.2,0.2-0.3,0.2-0.5,0.2h-7.9v1.8h8.7
			c0.2,0,0.4,0.1,0.5,0.2c0.2,0.2,0.2,0.3,0.2,0.5v4c0,0.2-0.1,0.4-0.2,0.5c-0.2,0.2-0.3,0.2-0.5,0.2h-14.7
			C306.2,290.9,306,290.8,305.8,290.7z"/>
	</g>
	<g>
		<path class="st16" d="M188.7,288.8c-0.2-0.2-0.2-0.3-0.2-0.5V270c0-0.2,0.1-0.4,0.2-0.5c0.2-0.1,0.3-0.2,0.5-0.2h5.7
			c0.2,0,0.4,0.1,0.5,0.2c0.2,0.2,0.2,0.3,0.2,0.5v13.2h7.8c0.2,0,0.4,0.1,0.5,0.2c0.2,0.2,0.2,0.3,0.2,0.5v4.3
			c0,0.2-0.1,0.4-0.2,0.5c-0.2,0.2-0.3,0.2-0.5,0.2h-14.3C189,289,188.9,288.9,188.7,288.8z"/>
		<path class="st16" d="M209.2,288.8c-0.2-0.2-0.2-0.3-0.2-0.5V270c0-0.2,0.1-0.4,0.2-0.5c0.2-0.1,0.3-0.2,0.5-0.2h14.5
			c0.2,0,0.4,0.1,0.5,0.2c0.2,0.2,0.2,0.3,0.2,0.5v4c0,0.2-0.1,0.4-0.2,0.5c-0.2,0.2-0.3,0.2-0.5,0.2h-8.5v1.8h7.9
			c0.2,0,0.4,0.1,0.5,0.2c0.2,0.2,0.2,0.3,0.2,0.5v3.7c0,0.2-0.1,0.4-0.2,0.5c-0.2,0.2-0.3,0.2-0.5,0.2h-7.9v1.8h8.7
			c0.2,0,0.4,0.1,0.5,0.2c0.2,0.2,0.2,0.3,0.2,0.5v4c0,0.2-0.1,0.4-0.2,0.5c-0.2,0.2-0.3,0.2-0.5,0.2h-14.7
			C209.6,289,209.4,288.9,209.2,288.8z"/>
		<path class="st16" d="M229.3,288.8c-0.1-0.1-0.2-0.3-0.2-0.4s0-0.1,0-0.2l6.3-18c0.1-0.2,0.2-0.5,0.4-0.7s0.5-0.3,0.8-0.3h6.1
			c0.4,0,0.6,0.1,0.8,0.3c0.2,0.2,0.3,0.4,0.4,0.7l6.3,18c0,0.1,0,0.1,0,0.2c0,0.2-0.1,0.3-0.2,0.4c-0.1,0.1-0.3,0.2-0.4,0.2h-5.2
			c-0.6,0-0.9-0.2-1.1-0.7l-0.7-1.9h-6.1l-0.7,1.9c-0.2,0.5-0.5,0.7-1.1,0.7h-5.2C229.6,289,229.5,289,229.3,288.8z M238.2,280.9
			h3.2l-1.6-5.3L238.2,280.9z"/>
		<path class="st16" d="M256.6,287.4c-1.7-1.3-2.5-3.2-2.7-5.8c0-0.5,0-1.3,0-2.5s0-2,0-2.6c0.1-2.5,1-4.3,2.7-5.6
			c1.7-1.3,4-1.9,6.8-1.9c1.9,0,3.6,0.3,5.1,0.8c1.5,0.6,2.6,1.3,3.4,2.3s1.2,2,1.2,3.2c0,0.2-0.1,0.3-0.2,0.4s-0.3,0.2-0.4,0.2
			h-6.2c-0.4,0-0.7-0.1-0.8-0.3c0,0-0.1-0.2-0.3-0.4c-0.2-0.2-0.4-0.4-0.7-0.5c-0.3-0.1-0.7-0.2-1.1-0.2c-1.4,0-2.1,0.7-2.2,2.1
			c0,0.5,0,1.3,0,2.4s0,1.9,0,2.4c0.1,1.6,0.8,2.4,2.3,2.4c0.8,0,1.3-0.2,1.8-0.5c0.4-0.3,0.6-0.8,0.6-1.5l0,0h-1.3
			c-0.2,0-0.4-0.1-0.5-0.2c-0.2-0.1-0.2-0.3-0.2-0.5V278c0-0.2,0.1-0.4,0.2-0.5c0.2-0.1,0.3-0.2,0.5-0.2h7.8c0.2,0,0.4,0.1,0.5,0.2
			c0.2,0.2,0.2,0.3,0.2,0.5v3.7c0,1.7-0.4,3.1-1.2,4.2s-2,2.1-3.4,2.6c-1.5,0.6-3.2,0.9-5.1,0.9
			C260.5,289.3,258.2,288.7,256.6,287.4z"/>
		<path class="st16" d="M280.8,287.4c-1.7-1.3-2.5-3.2-2.5-5.8V270c0-0.2,0.1-0.4,0.2-0.5c0.2-0.1,0.3-0.2,0.5-0.2h5.5
			c0.2,0,0.4,0.1,0.5,0.2c0.2,0.2,0.2,0.3,0.2,0.5v11.5c0,0.7,0.2,1.3,0.5,1.6c0.3,0.4,0.9,0.6,1.6,0.6s1.2-0.2,1.6-0.6
			c0.3-0.4,0.5-0.9,0.5-1.6V270c0-0.2,0.1-0.4,0.2-0.5c0.2-0.1,0.3-0.2,0.5-0.2h5.5c0.2,0,0.4,0.1,0.5,0.2c0.2,0.2,0.2,0.3,0.2,0.5
			v11.6c0,2.6-0.8,4.5-2.5,5.8c-1.6,1.3-3.9,1.9-6.7,1.9C284.7,289.3,282.5,288.7,280.8,287.4z"/>
		<path class="st16" d="M302.7,288.8c-0.2-0.2-0.2-0.3-0.2-0.5V270c0-0.2,0.1-0.4,0.2-0.5c0.2-0.1,0.3-0.2,0.5-0.2h14.5
			c0.2,0,0.4,0.1,0.5,0.2c0.2,0.2,0.2,0.3,0.2,0.5v4c0,0.2-0.1,0.4-0.2,0.5c-0.2,0.2-0.3,0.2-0.5,0.2h-8.5v1.8h7.9
			c0.2,0,0.4,0.1,0.5,0.2c0.2,0.2,0.2,0.3,0.2,0.5v3.7c0,0.2-0.1,0.4-0.2,0.5c-0.2,0.2-0.3,0.2-0.5,0.2h-7.9v1.8h8.7
			c0.2,0,0.4,0.1,0.5,0.2c0.2,0.2,0.2,0.3,0.2,0.5v4c0,0.2-0.1,0.4-0.2,0.5c-0.2,0.2-0.3,0.2-0.5,0.2h-14.7
			C303,289,302.8,288.9,302.7,288.8z"/>
	</g>
</g>
</svg>
